…
-   **"년, 월, 일, 시, 분, 초" &gt;&gt; 날짜 데이터로 변환**

    ``` r
    library(nycflights13)

    flights %>% 
    select(year, month, day, hour, minute)
    #> # A tibble: 336,776 x 5
    #>     year month   day  hour minute
    #>    <int> <int> <int> <dbl>  <dbl>
    #>  1  2013     1     1     5     15
    #>  2  2013     1     1     5     29
    #>  3  2013     1     1     5     40
    #>  4  2013     1     1     5     45
    #>  5  2013     1     1     6      0
    #>  6  2013     1     1     5     58
    #>  7  2013     1     1     6      0
    #>  8  2013     1     1     6      0
    #>  9  2013     1     1     6      0
    #> 10  2013     1     1     6      0
    #> # ... with 336,766 more rows

    flights %>% 
    select(year, month, day, hour, minute) %>% 
    mutate(departure = make_datetime(year, month, day, hour, minute))
    #> # A tibble: 336,776 x 6
    #>     year month   day  hour minute           departure
    #>    <int> <int> <int> <dbl>  <dbl>              <dttm>
    #>  1  2013     1     1     5     15 2013-01-01 05:15:00
    #>  2  2013     1     1     5     29 2013-01-01 05:29:00
    #>  3  2013     1     1     5     40 2013-01-01 05:40:00
    #>  4  2013     1     1     5     45 2013-01-01 05:45:00
    #>  5  2013     1     1     6      0 2013-01-01 06:00:00
    #>  6  2013     1     1     5     58 2013-01-01 05:58:00
    #>  7  2013     1     1     6      0 2013-01-01 06:00:00
    #>  8  2013     1     1     6      0 2013-01-01 06:00:00
    #>  9  2013     1     1     6      0 2013-01-01 06:00:00
    #> 10  2013     1     1     6      0 2013-01-01 06:00:00
    #> # ... with 336,766 more rows
    ```
…
    (today() %--% next_year) %/% days(1)
    #> [1] 365
    ```

-   `lubridate` package를 이용한 시간 데이터 전처리

    ``` r
    library(dplyr)
    data(lakers)

    # raw 데이터 확인
    (lakers <- lakers %>% tbl_df)
    #> # A tibble: 34,624 x 13
    #>        date opponent game_type  time period      etype  team
    #>       <int>    <chr>     <chr> <chr>  <int>      <chr> <chr>
    #>  1 20081028      POR      home 12:00      1  jump ball   OFF
    #>  2 20081028      POR      home 11:39      1       shot   LAL
    #>  3 20081028      POR      home 11:37      1    rebound   LAL
    #>  4 20081028      POR      home 11:25      1       shot   LAL
    #>  5 20081028      POR      home 11:23      1    rebound   LAL
    #>  6 20081028      POR      home 11:22      1       shot   LAL
    #>  7 20081028      POR      home 11:22      1       foul   POR
    #>  8 20081028      POR      home 11:22      1 free throw   LAL
    #>  9 20081028      POR      home 11:00      1       foul   LAL
    #> 10 20081028      POR      home 10:53      1       shot   POR
    #> # ... with 34,614 more rows, and 6 more variables: player <chr>,
    #> #   result <chr>, points <int>, type <chr>, x <int>, y <int>

    # time_index 추가
    lakers <- lakers %>% 
    mutate(date = paste(date, time) %>% ymd_hm) %>% 
        rename(time_index = date) %>% 
        select(-time)
    lakers
    #> # A tibble: 34,624 x 12
    #>             time_index opponent game_type period      etype  team
    #>                 <dttm>    <chr>     <chr>  <int>      <chr> <chr>
    #>  1 2008-10-28 12:00:00      POR      home      1  jump ball   OFF
    #>  2 2008-10-28 11:39:00      POR      home      1       shot   LAL
    #>  3 2008-10-28 11:37:00      POR      home      1    rebound   LAL
    #>  4 2008-10-28 11:25:00      POR      home      1       shot   LAL
    #>  5 2008-10-28 11:23:00      POR      home      1    rebound   LAL
    #>  6 2008-10-28 11:22:00      POR      home      1       shot   LAL
    #>  7 2008-10-28 11:22:00      POR      home      1       foul   POR
    #>  8 2008-10-28 11:22:00      POR      home      1 free throw   LAL
    #>  9 2008-10-28 11:00:00      POR      home      1       foul   LAL
    #> 10 2008-10-28 10:53:00      POR      home      1       shot   POR
    #> # ... with 34,614 more rows, and 6 more variables: player <chr>,
    #> #   result <chr>, points <int>, type <chr>, x <int>, y <int>
…
    # 기간 조건 사용
    inter <- interval(ymd_hms("2008-10-28 12:00:00"), ymd_hms("2009-03-09 00:33:00"))
    # inter <- ymd_hms("2008-10-28 12:00:00") %--% ymd_hms("2009-03-09 00:33:00")

    lakers %>% 
        filter(time_index %within% inter)
    #> # A tibble: 25,554 x 12
    #>             time_index opponent game_type period     etype  team
    #>                 <dttm>    <chr>     <chr>  <int>     <chr> <chr>
    #>  1 2008-10-28 12:00:00      POR      home      1 jump ball   OFF
    #>  2 2008-10-29 12:00:00      LAC      away      1 jump ball   OFF
    #>  3 2008-10-29 11:36:00      LAC      away      1      shot   LAL
    #>  4 2008-10-29 11:24:00      LAC      away      1      shot   LAC
    #>  5 2008-10-29 11:24:00      LAC      away      1   rebound   LAL
    #>  6 2008-10-29 11:08:00      LAC      away      1      shot   LAL
    #>  7 2008-10-29 10:58:00      LAC      away      1      shot   LAC
    #>  8 2008-10-29 10:57:00      LAC      away      1   rebound   LAL
    #>  9 2008-10-29 10:41:00      LAC      away      1      shot   LAL
    #> 10 2008-10-29 10:40:00      LAC      away      1   rebound   LAC
    #> # ... with 25,544 more rows, and 6 more variables: player <chr>,
    #> #   result <chr>, points <int>, type <chr>, x <int>, y <int>
    ```
…
